3.104843313475345434e-03,2.318498879163422401e-04,9.413887772207230054e-02,4.842119280533299479e-03,5.038584137691022244e-03,2.149079162470123039e-02,4.178600449857342003e-04,4.446093316998927028e-03,-9.830314545954367267e-01,8.464663907254713071e-02,-3.408834191697262400e-02,-1.147779790563283400e-02,-2.055479410269926699e-02,2.780336079749222856e-03,-5.889771104904948686e-03,-2.001062670383850928e-03,-5.222068040043050322e-03,-2.320702475375718832e-03,-6.641342891958502449e-03,-2.261296106617020647e-03,-7.058052375111071100e-03,7.723470451281804318e-04,4.337372023761118653e-04,7.099281569129743371e-04,6.592857533679485514e-04,6.013566911667469301e-04,5.872976123214011281e-04,6.253512453042633489e-04,2.704250632963837867e-04,2.715080473042966592e-04,4.593862835884575087e-04,5.491937024128543468e-04,4.904701131463860440e-04,7.694595503168523160e-04,1.293136142187454370e-03,3.447693039832091339e-04,1.671142792112339029e-02,1.199962887855052880e-03,1.288913744421032017e-03,1.305455948681884422e-02,2.589829620090185560e-04,2.338865798318647167e-03,9.986948114648225294e-02,3.208160312388085716e-02,3.759715334438235718e-02,2.366826769794961108e-02,1.766151372464767888e-02,1.746543012246836585e-02,1.430580029518172154e-02,1.392697599498549793e-02,1.226012168072035391e-02,1.265246359767029267e-02,1.210344844365069533e-02,1.158049832683869310e-02,1.152432012627783477e-02,9.416130974583955190e-04,6.446696802768139964e-04,8.673197097201130502e-04,9.510088813881720140e-04,7.560733384112283033e-04,8.274604559088896564e-04,7.724253726964616694e-04,4.832410309975054287e-04,3.783574300712559614e-04,5.733919115026818447e-04,6.313545393625185015e-04,7.041337208279090966e-04,4.072992447411075525e-04,1
3.190619832128979445e-03,5.155022733380840855e-04,1.004011990214434408e-01,4.859353817026563008e-03,5.019659762705361641e-03,2.181301259708625165e-02,3.989487345932659799e-04,4.537524231893658166e-03,-9.809968418494214859e-01,8.832528949118886863e-02,-2.446293684284883002e-02,2.062846126821972752e-03,-2.917287936548565441e-02,5.365834897785412734e-03,-2.384257656141748497e-04,-6.151558708701123507e-03,-1.814318347662269943e-03,-2.339441582031891263e-03,-7.342962794759841892e-03,1.173116013541657902e-03,-5.899457525025430561e-03,6.213627388466096309e-04,4.592125308373308729e-04,8.572208610401795947e-04,9.295699109462510386e-04,9.314277555682449854e-04,5.750091132141918427e-04,5.806283228024155738e-04,2.354810254614437485e-04,3.428053890903860041e-04,4.213702251913960879e-04,4.612617362508008049e-04,3.105205657070347122e-04,8.760101839224263172e-04,1.410058776502728711e-03,4.394348534123783032e-04,1.466629373193976439e-02,1.276826931487219175e-03,1.350955663142888296e-03,1.324551079404663080e-02,3.788908286458103885e-04,2.168566834405696257e-03,1.110469775596021058e-01,3.932268832146040144e-02,3.656574642776259237e-02,1.940965830667119862e-02,2.042872049298394971e-02,1.654280019651498471e-02,1.438844826475529394e-02,1.279084336492653656e-02,1.278281606989577386e-02,1.000948573404640378e-02,9.625729305918805448e-03,9.755650315009739906e-03,8.385587761083539843e-03,8.374235167142605801e-04,5.486047415951410440e-04,1.011568926044216152e-03,1.129676348220502160e-03,1.176417592230607568e-03,7.838372153991615167e-04,7.317392611669084343e-04,4.311496197799703756e-04,4.692552890476444543e-04,5.042743572080803658e-04,5.642402509994119339e-04,4.470764007321065964e-04,5.162775938518090807e-04,1
3.922734861061213420e-03,4.939723637052653065e-04,9.818401539253511501e-02,5.602438073084922178e-03,5.107095420496461299e-03,3.005170594278831764e-02,3.696864279397180965e-04,5.866212593747566727e-03,-9.814420906990352078e-01,6.067442019712349782e-02,-2.597545662973037642e-02,-7.796625020505309860e-03,-2.750394052583454707e-02,4.292926282894188837e-03,-1.313563361277571284e-02,1.256080156439078836e-03,-8.361564517508485866e-03,-2.550636468153884805e-03,-9.014586346523587382e-03,2.057255272081985110e-04,-6.402230516934830085e-03,5.519156617625307773e-04,3.825437275317605302e-04,6.905103349584072302e-04,6.866442727392839916e-04,6.656439794902436298e-04,5.589336536602234522e-04,4.848824632617712940e-04,1.692820122431642560e-04,3.741757830749520785e-04,3.794617274234721974e-04,5.317060144119794846e-04,3.523074189548584356e-04,7.185469960010609520e-04,1.668690875696030463e-03,5.671853301047864943e-04,1.642426267068496787e-02,1.291739737028761237e-03,1.253856448020150951e-03,1.466183604372564737e-02,2.425035439968333711e-04,2.869260585222830045e-03,1.203961482378920755e-01,3.806488728296237439e-02,4.104642189114596218e-02,2.314305205158163556e-02,2.049535484483054268e-02,1.690046447104151875e-02,1.637860960873681326e-02,1.396635065500533707e-02,1.276811344857206772e-02,1.177420165279877140e-02,1.246002078575011475e-02,1.165413196788536027e-02,1.098123454198365184e-02,7.246354813967271179e-04,5.605697281888958119e-04,8.623551061941972951e-04,9.715407144008316896e-04,9.289474490892298420e-04,8.118100464498645115e-04,6.450188041721776570e-04,2.901127903042456332e-04,5.588174169099361255e-04,5.147534323700608252e-04,7.044763581896022146e-04,4.842710327846855419e-04,4.386820028379885507e-04,1
4.149024122123046339e-03,6.906829397007239980e-04,9.815246355764485620e-02,5.650386232229753086e-03,5.016913740188090956e-03,3.173542936836661055e-02,3.379080549971566678e-04,6.130464707139272017e-03,-9.819601044932814160e-01,5.453030773996217495e-02,-2.913433098318548090e-02,-8.084633514779830665e-03,-2.533846019377537090e-02,3.425786875730999111e-03,-1.407152627419360792e-02,1.330349254389943774e-03,-8.150744722895961539e-03,-2.240263415654402974e-03,-5.842989568209608527e-03,2.360343249990036474e-03,-5.053601515568503268e-03,4.415793314037683550e-04,3.219111971949601509e-04,5.438343020906845912e-04,5.997592028886046273e-04,6.577660222851194460e-04,6.044481455487582099e-04,5.942909893781605927e-04,1.922857584036822957e-04,4.325305617349310119e-04,4.004649435069098143e-04,4.935057792382253634e-04,3.449251671844677080e-04,6.724266836884683091e-04,1.669551079140365940e-03,7.945467132841504184e-04,1.535754346171962909e-02,1.256451707655225009e-03,1.154119849541214828e-03,1.490162381074622462e-02,2.115201893235330412e-04,2.832183733621002758e-03,1.193283641205724610e-01,3.670886792394380954e-02,4.086997779144304482e-02,2.410706063442329822e-02,2.044070581845407533e-02,1.707090331477478448e-02,1.589192325336162559e-02,1.313509747796643042e-02,1.220955325447817437e-02,1.199543927407308551e-02,1.215374096085819478e-02,1.112499903572888686e-02,1.023024861989308559e-02,5.838613746112518215e-04,4.373069368795634484e-04,6.753737202817286294e-04,8.069590388708724462e-04,9.078073037613018691e-04,8.433047981121910433e-04,7.292391638588400322e-04,3.248225730179926489e-04,6.741679275428356542e-04,5.959775317082562302e-04,6.527690297475144399e-04,5.291607277701785217e-04,4.204180938550082232e-04,1
4.398198497268084213e-03,1.317334272778708341e-03,1.012109032930536695e-01,5.894658346563816376e-03,5.137747191176012321e-03,3.336126023622323911e-02,3.970384980809119665e-04,6.486731171739272897e-03,-9.801367340954344476e-01,5.089363823839099937e-02,-4.325058414900403991e-02,-4.664177291224412894e-03,-2.814672102338371465e-02,5.228781487536642188e-03,-1.084155565468118872e-02,-7.258661547787137501e-04,-5.757127334742381287e-03,-8.237540910768309738e-04,-3.512965383943436343e-03,1.852686236750613182e-04,-1.085817007748368125e-03,4.378363334550845493e-04,3.191947411136068649e-04,4.900260252606785999e-04,4.757702981951743705e-04,4.153772875612642200e-04,5.430361745726900672e-04,4.944232701827606241e-04,1.998757483620509782e-04,3.586464352725529810e-04,3.997788085321006936e-04,5.386043169067136890e-04,4.204913544491868486e-04,6.302086590202989926e-04,1.598611454174038004e-03,1.359193367070440960e-03,1.644757326737739805e-02,1.211499577135937127e-03,1.208037755045197935e-03,1.490201316915507924e-02,2.818582968617211427e-04,2.451346718950226256e-03,1.269370671822794283e-01,3.714099270198930464e-02,4.098021571370301375e-02,2.320600761368700124e-02,2.102351781231644179e-02,1.860571876570726868e-02,1.750584511539807903e-02,1.640579520887636145e-02,1.415788730261757604e-02,1.219663539767489036e-02,1.231044568164724184e-02,1.316899657253523849e-02,1.101907659792887399e-02,6.350628450878443611e-04,4.876419176972162078e-04,6.582871310811914956e-04,6.867066442037541782e-04,5.877862828376228697e-04,8.872318713940703346e-04,6.521811430694148719e-04,3.232452580675459022e-04,5.348816384519128287e-04,5.770545323720194285e-04,7.638547702674017368e-04,6.140731679212342370e-04,3.997638415949815037e-04,1
3.963865520653074917e-03,1.116218388892467909e-03,1.004599998386305343e-01,5.575683492722032127e-03,5.060871326856090577e-03,3.075213146450378118e-02,3.754140624136628550e-04,5.876271063538279424e-03,-9.772813513254768880e-01,6.133023825978477228e-02,-3.499315546248839975e-02,-4.847021158265319221e-03,-3.343287095957839239e-02,4.932889321962655518e-03,-1.166416817855598156e-02,1.551882275867362678e-03,-6.236953117415784502e-03,-1.978910208421582901e-03,-5.594117170343895253e-03,7.018325846538915960e-04,-3.680103398022493977e-03,4.928223079533217707e-04,4.888360706183609650e-04,4.867604066125842959e-04,6.187350277288644835e-04,7.107449623766535444e-04,6.832420195917911091e-04,5.540296242584379560e-04,2.183163256835421754e-04,3.836990712236265384e-04,3.603335217339795945e-04,4.563629871403185215e-04,4.013233434200920392e-04,7.171423600498938022e-04,1.567170943527712232e-03,1.315214397263615980e-03,1.534651955864251537e-02,1.292634803162069591e-03,1.272204552780011088e-03,1.493460875175025258e-02,3.987684897316870350e-04,2.574332155100053383e-03,1.464351434496165560e-01,3.827844524803562104e-02,3.893140073872809748e-02,2.263209664930145026e-02,2.231383387993318354e-02,1.800320377063556812e-02,1.705201436633397780e-02,1.446548936561484373e-02,1.388082413402385619e-02,1.137670558241906348e-02,1.115778116267513234e-02,1.097706955814072016e-02,9.440592667125751597e-03,6.265534912984269253e-04,6.986309080302542836e-04,5.876650333464595102e-04,8.463525063059095009e-04,9.534964394514230251e-04,9.445995739183428224e-04,7.153444728719150466e-04,3.897526203987292884e-04,5.706320446297163257e-04,4.725178668933529896e-04,5.737098500531603949e-04,5.509304656122364146e-04,4.400980934847647835e-04,1
3.785778810971505721e-03,5.307962792688456161e-04,1.053723449532942280e-01,5.649460595652308105e-03,5.242323011330883402e-03,3.054116723602079073e-02,3.620523325681117982e-04,5.710655894477802835e-03,-9.839693939172783343e-01,6.158282526238893773e-02,-4.818520318390441537e-02,-1.269834074498586360e-02,-2.937014801899976227e-02,6.403095203172315050e-03,-1.656288994196041323e-02,8.105408991918852321e-04,-1.406506720780179541e-02,-6.009194483942756349e-03,-1.095448075196055714e-02,-2.903254834814353032e-04,1.959724666784718513e-03,3.634001049621076330e-04,4.021811579726507387e-04,6.460077365093744133e-04,7.186538634900578636e-04,7.362562960483998989e-04,7.338509671600900548e-04,4.793950615023845384e-04,2.057548602825949125e-04,3.399275702662179414e-04,3.561028123118048570e-04,3.925150429788430511e-04,3.152158220263290961e-04,7.425846724802040270e-04,1.288668189435220306e-03,6.086279796741039241e-04,1.404431063468443604e-02,1.082945016001969369e-03,1.233073689994094741e-03,1.469880016310758965e-02,2.175321438819208535e-04,2.604061085563074383e-03,8.507029644088046072e-02,3.094816057283397356e-02,3.025449701404731712e-02,2.297837243087014550e-02,1.720475842398203059e-02,1.550395486053412521e-02,1.504982937653307450e-02,1.362648921806882893e-02,1.404276892085162994e-02,1.246969415141016037e-02,1.285630373834963959e-02,1.302958653445801182e-02,1.186739600269234168e-02,4.968404189693129309e-04,6.113491475053932801e-04,7.943120771189307421e-04,8.909673879473380955e-04,9.538696233526364199e-04,9.897212555537745864e-04,6.373412046197929337e-04,3.659382337011332664e-04,4.816406769400456071e-04,5.244303551913761944e-04,5.824276781304496336e-04,4.714121685632640876e-04,4.252727374364196310e-04,1
4.023383476740242069e-03,2.863549465549324199e-04,9.651872634460584299e-02,5.453203574090612071e-03,4.904489509877185335e-03,3.267011288438118749e-02,3.592335223474491836e-04,6.185231935157887995e-03,-9.836872620442042026e-01,5.736857524877948117e-02,-1.830689062426700195e-02,5.670082338620780621e-03,-2.685006303937421263e-02,6.184449336370403602e-03,-1.101486807139404923e-02,-3.672800973225473237e-03,-8.738000966035457465e-03,-1.188718943074958036e-03,-7.590376399878862035e-03,3.882827882841121975e-03,-4.918477848732490630e-03,4.375874486194080305e-04,2.315208401090876897e-04,5.870769750280302804e-04,6.799233574986973411e-04,7.855450377295982150e-04,7.062549155288983709e-04,5.814634358043362485e-04,1.480560417938877205e-04,3.783417906912407008e-04,3.884245813767773473e-04,4.857390359799752984e-04,2.673172488264234843e-04,6.984215862562972651e-04,1.584368442369285361e-03,3.255808456079234284e-04,1.481769362604194555e-02,1.190074829996444136e-03,1.156355220581878470e-03,1.450822006923441036e-02,2.756274669141597564e-04,2.583582601118310576e-03,1.093258484700963956e-01,3.750000358635664083e-02,3.546021948160410497e-02,1.985373576973940499e-02,1.844110744153701006e-02,1.655030926422870752e-02,1.516018977575252398e-02,1.335572412679781815e-02,1.249196033560294461e-02,1.200593795651333506e-02,1.125049293211398578e-02,1.129167274364040012e-02,1.012946470259478218e-02,5.824915360805373596e-04,3.589462610020592820e-04,7.538325298238293020e-04,9.732624278715845375e-04,1.052950860535962346e-03,9.885340754389520743e-04,6.998076982827677525e-04,2.325991109692424758e-04,5.143758229521791341e-04,4.987585101707524022e-04,5.690260326454936587e-04,3.811342045114453629e-04,4.440644428337949521e-04,1
3.720985522403114261e-03,9.632259998686097907e-05,1.007588123628283677e-01,5.341457558754637153e-03,4.840631483332030402e-03,3.299635731916995829e-02,2.687641321869152261e-04,5.869043773010280789e-03,-9.876798798287202974e-01,5.070896263759721440e-02,-4.294559796027655474e-02,-7.950257602800835793e-03,-2.233750775313328440e-02,3.107850558499624261e-03,-1.151439374988175342e-02,-4.084395051942045496e-03,-1.075818180169784734e-02,-4.418899285218350244e-03,-1.106519088430368489e-02,-2.590368164083782163e-03,-5.431110922566285797e-03,5.133273170968404844e-04,3.710585753972156704e-04,6.216607742380768700e-04,6.722418817599125525e-04,6.086872305829434809e-04,5.997097664398323095e-04,4.462284533136328443e-04,2.289962873137981608e-04,3.633343614124821775e-04,3.586493319878087185e-04,4.012580632931355838e-04,3.131704469815997757e-04,6.645070500562408897e-04,1.030164052317515417e-03,1.406538171466065884e-04,1.101391833794923732e-02,8.426926698661249462e-04,1.045583708555153455e-03,1.267859428743143071e-02,1.625465221394205794e-04,2.290345374376269623e-03,6.775427924579260908e-02,2.391155423383172635e-02,2.509646616342410541e-02,2.002593849742401871e-02,1.340001750781212760e-02,1.292082051539018145e-02,1.185742282539341795e-02,1.108209417983877301e-02,1.107659184725923694e-02,1.080379066794013264e-02,1.139435324519914514e-02,1.116180387375608971e-02,1.101702389624454811e-02,6.340031864320614741e-04,5.010076697487070513e-04,7.485470482394587744e-04,8.348155488094549485e-04,7.515081327249509453e-04,7.803019450149076448e-04,5.518495370689260968e-04,3.329685926588943465e-04,4.846743057925439438e-04,4.621322207889456924e-04,4.754016784835071946e-04,4.156294560631075140e-04,3.948755546905924926e-04,1
3.645227276311954669e-03,3.289733570231855747e-04,9.842983085480730421e-02,5.451093495044174661e-03,4.836687378166629192e-03,3.129198089373787933e-02,3.190492353360667834e-04,5.555195028269243468e-03,-9.825880267979960614e-01,4.666685004214789212e-02,-3.183842935614842468e-02,9.237273444184195340e-03,-2.317674058339734208e-02,5.005209134559508548e-03,-7.319353273289135042e-03,-6.075229214119070263e-03,-8.070836496045685066e-03,1.711952155896959062e-03,-6.202364821928535790e-03,6.516826288733599398e-03,-4.835448647807402342e-03,3.304105787421467654e-04,1.748848591264854084e-04,3.636689795548202209e-04,4.610551226854967813e-04,5.552341020241555528e-04,5.615116973715163261e-04,5.470804292157378486e-04,2.028473974195563613e-04,4.211087637513819155e-04,3.103167758211471680e-04,1.041720356526115590e-03,2.141075521250626037e-04,7.538001786796075677e-04,1.419525799839309842e-03,3.611409341086765598e-04,1.397758444542383099e-02,1.043963658599558319e-03,1.129527550612712504e-03,1.165309734326394446e-02,2.413465862021894133e-04,2.145432221527975719e-03,1.222362834689215694e-01,3.527361511764180724e-02,3.439129240094976336e-02,2.060846345050022441e-02,1.682455423029443134e-02,1.537732700379413481e-02,1.446606957033456584e-02,1.407887135470672207e-02,1.122232802467124958e-02,1.202352918673029424e-02,1.080674444915998185e-02,1.040235657435339793e-02,9.436535468063880425e-03,5.114878921011917776e-04,2.753233464456974946e-04,5.353394266106355085e-04,7.914118421895603890e-04,8.589362334689671719e-04,8.231923151726623167e-04,7.157432622623665763e-04,3.353650639354919497e-04,5.694722847834404397e-04,3.999121126831291467e-04,1.007452802857917128e-03,3.232998896552215988e-04,4.145269128538092750e-04,1
4.269269620736481329e-03,1.247044671022424795e-03,9.856708013114419409e-02,5.796519477286864522e-03,5.131849406629030753e-03,3.179035062768047204e-02,3.537905950896765234e-04,6.310564984450970673e-03,-9.810106194274427205e-01,4.857761421613326913e-02,-3.148794501785347200e-02,-2.178824929305986716e-02,-1.327303052599279436e-02,5.453565134825943440e-03,-1.043811393701946436e-02,4.182396782918366973e-03,-9.370025028952073953e-03,4.463486626472731021e-04,-7.315484759828210469e-03,9.944025147785703813e-04,-6.232199868628696647e-03,4.739888151676196061e-04,3.634182644465998270e-04,5.586139476394442506e-04,4.840224225286498400e-04,4.986653577259207411e-04,4.926836474931744732e-04,4.672655971883382425e-04,2.322826131595081081e-04,3.410814904482831916e-04,3.473119264859971835e-04,5.361479045211867394e-04,3.159577547172159797e-04,6.031960306326507835e-04,1.574222549201629391e-03,1.496398788316562331e-03,1.453675321699652440e-02,1.269682807167564834e-03,1.092002968349290414e-03,1.571902202314722635e-02,2.356524273296919090e-04,2.797478616352387908e-03,1.305204762676690222e-01,4.205384852546697333e-02,3.289124532100216186e-02,2.399853182727942902e-02,1.547008908070124367e-02,1.537602637204254358e-02,1.358740635570245860e-02,1.187624826449918541e-02,1.225026740919104955e-02,1.174540868013822931e-02,1.212280186992946950e-02,1.144179281004956833e-02,1.108769188032129177e-02,6.499078862430543359e-04,5.122387632891147857e-04,7.098773804537507857e-04,6.289268471326430344e-04,6.438614437093824082e-04,6.633238798548934294e-04,5.816793085847148407e-04,3.598022854263288888e-04,4.768941868681774582e-04,4.791077813279490008e-04,6.270859100513573965e-04,4.723402875670654503e-04,3.506473921083133670e-04,1
4.406980813321898990e-03,5.071366378724179082e-04,1.023569483140817776e-01,5.907841313813792274e-03,5.168400174044567030e-03,3.038700159106584586e-02,3.439713374017001565e-04,6.242925737937995295e-03,-9.837437347448649838e-01,5.981435841555770433e-02,-2.212966495207105422e-02,-7.398508563666804025e-03,-3.436909106733126995e-02,3.527984214229194782e-03,-1.282122911805905555e-02,-2.430958568737097935e-04,-6.970713817869614824e-03,-3.309306142423369245e-03,-7.820598163689851390e-03,2.834893684176151502e-04,-6.674765652104472022e-03,7.777727523779976110e-04,3.284313375540436498e-04,8.794627868755269936e-04,7.347076225675450677e-04,5.864560758110873989e-04,4.654776167129029158e-04,4.005806600036797369e-04,1.260764882612096249e-04,3.884648095881809314e-04,3.876934533046304753e-04,5.106998097458721178e-04,3.087721230455404628e-04,7.506762655252159980e-04,1.790595832244735444e-03,5.154163994967002468e-04,1.507642620991162322e-02,1.396805140385543563e-03,1.223927193053942928e-03,1.449770277884012727e-02,2.087308424477516029e-04,2.642065238528187952e-03,9.715841989555942804e-02,3.830922214716005886e-02,3.549815442239989682e-02,2.389939319032252305e-02,2.102014971840823754e-02,1.747938977888262996e-02,1.537600824381577143e-02,1.416869787025969683e-02,1.275977449419703549e-02,1.147496470239374976e-02,1.179715846752641892e-02,1.183228332091255421e-02,1.115151639398406086e-02,8.634861511274458503e-04,4.531279337884398556e-04,9.498764339915205610e-04,8.627526199248469665e-04,7.743822071198132708e-04,6.712261896332779665e-04,5.274091267424442899e-04,2.148938419772961430e-04,5.248135037901462694e-04,4.911918798916279629e-04,6.296758481108141129e-04,4.364846777786522713e-04,4.183438911704217482e-04,1
5.034510142555538408e-03,6.033982699895854831e-04,1.032837213290456330e-01,6.232881906036842785e-03,5.049955816864492783e-03,3.532241658740591095e-02,3.413426118533021401e-04,7.189188416035415322e-03,-9.830922349507370539e-01,5.197299471099949691e-02,-2.301291780203674683e-02,-6.173463624165988553e-03,-4.155511386206793556e-02,7.982195342619232553e-03,-1.109171361810224778e-02,4.995068965151413728e-03,-6.416883771543081989e-03,4.942434108801552727e-03,-6.545719510302852248e-03,5.222371599372198532e-03,-4.555214138718937517e-03,4.821351730801901720e-04,3.204112196676972188e-04,4.770672122084144333e-04,4.353360665316436729e-04,3.645254189670621447e-04,4.388366677791667725e-04,4.855239144677671011e-04,1.560307504991061752e-04,3.650230165631934351e-04,4.705315092785108001e-04,5.341901274574074009e-04,4.067629408185856549e-04,5.515857561816651889e-04,1.823324859764999945e-03,5.135463185539792348e-04,1.505913767048852603e-02,1.439636003856109656e-03,1.187668720332847637e-03,1.387271654986610599e-02,2.162704529064267325e-04,2.477858789622841822e-03,1.007207920247943922e-01,4.082735239626206908e-02,3.765883015958677860e-02,2.184476619689755192e-02,2.143147236074407005e-02,1.803527298936710710e-02,1.790164392374620980e-02,1.463231853936510299e-02,1.272534814431615369e-02,1.168667989407295299e-02,1.105755049946899327e-02,1.086242545996283712e-02,1.025745688007660694e-02,6.178578888386747304e-04,4.235453989881245466e-04,5.929333260085619664e-04,5.756497984913086811e-04,4.822427202547713743e-04,5.903324561158580265e-04,5.646236342063582110e-04,2.360186383887667380e-04,5.206764623626449970e-04,5.880944863987812212e-04,6.702504184364678225e-04,5.619954393502536900e-04,3.345057141993808118e-04,1
3.399790264566999575e-03,3.494368661433341992e-04,1.026844293772023048e-01,5.083062062669841709e-03,4.931602339353168170e-03,2.912679802492925893e-02,3.248338926997711043e-04,5.292919597079537818e-03,-9.841716396740741724e-01,7.356730803660703477e-02,-3.945345594210674517e-02,4.304638287107091961e-03,-2.636853231764866093e-02,4.545989945817629357e-03,-7.318834058901795524e-03,-8.516978638662851472e-03,-7.852328033927855749e-03,-7.988076977094740391e-03,-6.464903396151587371e-03,1.185365269163187688e-03,-2.464639015657336344e-03,6.562279316243545962e-04,2.381571839696119952e-04,5.859932699605527578e-04,6.589900594075253715e-04,7.637867980218817797e-04,7.878544008061767094e-04,5.772838992752984824e-04,3.472211051369820077e-04,4.233016010880221889e-04,4.369085196669239253e-04,5.437479370532764681e-04,3.201770273999123028e-04,7.836454776900364213e-04,1.217819065011955431e-03,4.272100004165303331e-04,1.305036512898203986e-02,1.047095384404263902e-03,1.220304189094759345e-03,1.337973318818294448e-02,2.124269825808767316e-04,2.165447792175991502e-03,8.910518491846619593e-02,2.911868823091360095e-02,2.964422398209071510e-02,2.021996681726890427e-02,1.632042799216990719e-02,1.368682413107135537e-02,1.366333550302515493e-02,1.249300412702229052e-02,1.252930654246416434e-02,1.266471423869655437e-02,1.104445599085924178e-02,1.118675782243535623e-02,1.072607648294942109e-02,7.794270880623790747e-04,3.120916860181305037e-04,7.014775378361940306e-04,8.243636739666314675e-04,8.209419020713872592e-04,9.740761310192649252e-04,7.084826899698986767e-04,6.212104319062003357e-04,5.700062933246710477e-04,5.562944197994018755e-04,6.392783006988426303e-04,4.590072444125639639e-04,4.207935552233534396e-04,1
3.755298835055548377e-03,1.409832326691205307e-03,9.856495604925734344e-02,5.247793015943890034e-03,4.797835411435869175e-03,3.017442270423953410e-02,4.393972159185108349e-04,5.573066685023159508e-03,-9.769978215969619129e-01,6.212688882249645106e-02,-3.858412662292010770e-02,-6.270370373377120174e-04,-3.052370774961749716e-02,-8.814094265251067820e-04,-5.825118980574880631e-03,3.146220872771933095e-04,-2.616383413680076642e-03,-1.666368350042038426e-03,-4.552138579446038738e-03,-1.010422487534841027e-03,-3.063377136042857041e-03,4.012444646256120551e-04,5.700774044798089099e-04,4.980094487117216369e-04,4.517749136345609114e-04,4.960909440735318358e-04,4.865539468513040426e-04,4.781044710852586132e-04,1.648970312778480453e-04,4.538363050072617396e-04,4.334122966945521088e-04,5.858873337160397160e-04,3.438181839178901613e-04,6.565327641600445224e-04,1.429557894827884019e-03,1.499519676087262285e-03,1.438163052372738726e-02,1.199844476199500446e-03,1.246378680471106355e-03,1.528843007587608188e-02,7.518522746390823202e-04,2.333082156309537140e-03,1.532082071594965678e-01,3.492443703710090136e-02,3.205808118680505275e-02,2.297836618343860118e-02,1.933150456387932453e-02,1.525507174065687983e-02,1.594981872818745927e-02,1.366200814652755030e-02,1.257977300489525677e-02,1.095350898320446645e-02,1.085970622312172618e-02,1.128850937610727766e-02,1.071764535956227539e-02,5.532283668850066513e-04,8.106868988392286566e-04,5.937087460182551750e-04,5.618615858161664974e-04,6.703925727799542322e-04,7.043242087692269367e-04,6.071477117900146714e-04,2.400460538124048074e-04,6.314757671798514873e-04,5.819162315414966183e-04,7.375179211261527088e-04,5.244095141432278699e-04,4.042977831745391860e-04,1
3.864286262691863684e-03,5.139451097469379098e-04,9.494100150693264573e-02,5.553972572910423865e-03,4.990122107684939572e-03,2.852321109574084551e-02,4.128200876828418847e-04,6.039762546418030349e-03,-9.815293686866179979e-01,5.299237459145369339e-02,-1.278528891007703165e-02,-1.113841376774761874e-02,-1.593992290075188847e-02,7.766205657735361818e-03,-1.471464484468034545e-02,1.555487042095393289e-03,-1.180448548412286677e-02,-4.509584065762896506e-03,-1.061518516961613284e-02,-1.978726325456752681e-04,-3.974078690280489698e-03,5.267153746515177912e-04,3.226967630223020545e-04,7.232125822126525333e-04,7.043332315819633704e-04,6.185843831458752006e-04,5.793421864957587746e-04,5.026630710827993502e-04,1.493465767570189239e-04,3.066901501772207358e-04,2.865829822293648613e-04,7.214998401257159688e-04,2.333868125923701327e-04,7.956013779675428447e-04,1.750283291364443470e-03,6.145904426649594120e-04,1.618063705382639245e-02,1.346924643403095987e-03,1.127557508973860622e-03,1.459322991440758360e-02,4.288215056595230082e-04,2.896580589695134465e-03,1.306304237609725305e-01,4.001037024938486342e-02,3.526286131166481153e-02,2.464380367691392654e-02,1.647049770715370426e-02,1.594663704202754773e-02,1.496979206824481344e-02,1.261350417766098943e-02,1.344905136056229189e-02,1.249524317008025853e-02,1.265660011615168251e-02,1.312510464745702578e-02,1.240261743803203545e-02,7.628823562148363737e-04,4.932337502171323801e-04,9.862730589166401971e-04,1.023494408013355100e-03,8.101543853001889938e-04,8.666328485612542418e-04,7.145048413362139420e-04,2.786665540715910759e-04,4.705978090388040569e-04,4.216276799765761784e-04,8.093928200725070046e-04,3.659175333542691701e-04,4.681051879609477687e-04,1
4.058671679655268504e-03,5.486800352199824871e-04,1.041392425550241724e-01,5.664288498423630455e-03,5.243883942158682199e-03,3.481800267488072836e-02,3.183376078957883114e-04,6.278507794123269758e-03,-9.835229345338266649e-01,6.135808144105260598e-02,-4.346117746401866044e-02,-1.006288544453436996e-02,-2.418407108647607773e-02,7.198294057101341714e-04,-1.650653601256767133e-02,-4.021883185678480806e-03,-7.223956335414307567e-03,-4.153653121097565341e-03,-8.177969787222398590e-03,-1.086481523785343259e-03,-4.367158939324193405e-03,5.224961226284207706e-04,4.420922725030890991e-04,5.828463736253621311e-04,5.800111364380560169e-04,6.921024950720514914e-04,5.821355321205322168e-04,5.040175769061440002e-04,2.458095882389206717e-04,4.921756585731788163e-04,4.512070836865524981e-04,4.914327946817775026e-04,3.752025100690851577e-04,6.972950947866583512e-04,1.368946495684339503e-03,6.606699625647678145e-04,1.561800254814550183e-02,1.070435895529529878e-03,1.180856353743549953e-03,1.496400111607874145e-02,2.143807911646797943e-04,2.706117171641371760e-03,9.654670452013953963e-02,3.034346271306997966e-02,2.961577018993397092e-02,2.084510037727830417e-02,1.646505324983456309e-02,1.441118846596482241e-02,1.449370925506123994e-02,1.295962996695735128e-02,1.266173024245266336e-02,1.270617613832252142e-02,1.349077157773382815e-02,1.316135920717370969e-02,1.215332768402561242e-02,6.455956012077927525e-04,5.896201652638281311e-04,6.420445997465535617e-04,7.169473649647155724e-04,9.182179269300324393e-04,7.711016887812401077e-04,6.225054886914868852e-04,3.637692108434120177e-04,6.364554230834140779e-04,5.679080854253871396e-04,6.271620633535937572e-04,4.982019231138677716e-04,4.105542160942025768e-04,1
4.225673646262249547e-03,1.202035691801402141e-03,1.027957724499906911e-01,5.622924703501720918e-03,4.980576849285768895e-03,3.140725965191583369e-02,4.403362444779767020e-04,6.105595927785128357e-03,-9.774372054718200031e-01,5.530271870106344412e-02,-4.365806940175098738e-02,-1.023298213809822020e-02,-1.451249766493605507e-02,-1.211092031001893311e-03,-1.021927543559401561e-02,1.114930750053222744e-03,-6.240187316678387844e-03,-4.111150960676619899e-03,-1.003172078096017418e-02,-4.186339169086811252e-03,-7.484245106576615202e-03,5.678770387174678688e-04,6.728584053359608960e-04,6.224141255965069978e-04,5.694028609409742137e-04,4.857396188362895096e-04,4.266877519782043444e-04,3.532095712204474068e-04,2.434827133344628664e-04,2.837415409255063790e-04,3.184800424503570859e-04,5.938554569294156489e-04,3.891929368902038284e-04,7.631695143172840309e-04,1.744322718614752530e-03,1.315779469992270139e-03,1.504026272189129543e-02,1.402498950436145003e-03,1.255504725325840574e-03,1.541815964915636827e-02,7.026235118739483773e-04,2.820366392943337089e-03,1.464354109172079366e-01,4.187426908097315742e-02,3.048206226305675767e-02,2.472760066396805650e-02,2.086685461009803871e-02,1.744137586154839367e-02,1.572897346166103258e-02,1.519330238715927046e-02,1.484067792369794456e-02,1.237549793067724800e-02,1.309972881888813931e-02,1.458285915439444871e-02,1.141234963615180703e-02,7.660249612607397587e-04,8.770776170257981634e-04,8.213407191121617924e-04,7.895941665694346939e-04,6.961563738477781135e-04,6.736157520529904331e-04,4.722388300411043587e-04,4.219115981655143194e-04,4.049365124557271589e-04,5.092664923675635762e-04,8.650479062222178996e-04,6.472829505973642797e-04,4.733857210635322829e-04,1
4.051740435221025741e-03,5.126864895089606458e-04,9.635113138875066319e-02,5.490739667614985553e-03,4.733149509697567869e-03,3.237412527772345894e-02,3.396992246039862899e-04,5.914951725712842140e-03,-9.823171206634553343e-01,4.788564870944429092e-02,-3.751721325774152321e-02,-6.922950417993299459e-03,-3.114889007925403588e-02,3.085662327895764660e-03,-5.965764113301000662e-03,-4.181708371850608591e-03,-5.952985635008251758e-03,2.192524557989000440e-03,-5.898582074484682615e-03,5.198200190457636684e-03,-7.990235642202921096e-03,6.125717131603913238e-04,3.498634078345478249e-04,4.665384477143091056e-04,4.070031247694716296e-04,3.964718586705098238e-04,5.518565884392526025e-04,4.932954833667314463e-04,2.157465803291248472e-04,3.420059852669304771e-04,4.180599251563489127e-04,5.089545683154115966e-04,3.516962221088239292e-04,6.272332004696834322e-04,1.520227039599437958e-03,5.901253241868222900e-04,1.502688538429151552e-02,1.245061833503716348e-03,1.190369341170854954e-03,1.464740530997458122e-02,3.149541085630610409e-04,2.382992265205436614e-03,1.190150042278304704e-01,4.084441039526814227e-02,3.414574660005464252e-02,2.244148949807737645e-02,1.809557192946390294e-02,1.671245077196104392e-02,1.606618359423383005e-02,1.497177916123346511e-02,1.329134172399901344e-02,1.122217431810432903e-02,1.026441196347837627e-02,1.087481106481256836e-02,9.656660004231975084e-03,8.106809959104108176e-04,4.776393689827133329e-04,6.718334204610635794e-04,5.995886566950139798e-04,5.781239896043917532e-04,8.181376542773073851e-04,6.956008874053643551e-04,3.348466319524195651e-04,4.188524626451232686e-04,5.355193361156189869e-04,6.196230606495771844e-04,4.531809840990490713e-04,4.037564624946097364e-04,1
3.184717248627783829e-03,1.506283884610821848e-04,8.860302052647295312e-02,4.706253561495061036e-03,4.838218589253905251e-03,2.125362145454078380e-02,4.191292335034321574e-04,4.466088697238052886e-03,-9.852805591863306178e-01,7.799538249115472999e-02,-2.781770504997438387e-02,-2.250021706773258287e-02,-1.870230826136828201e-02,-3.797359768927663880e-03,-5.721320803237373541e-03,8.360299897867045976e-04,-5.970657198811151443e-03,3.398676986379427570e-03,-4.251794778605010906e-03,2.778130343307717940e-03,-4.487612337577186888e-03,5.360268596993806884e-04,3.727730252333254831e-04,4.482762070742810100e-04,4.218891125216924290e-04,4.503097874447577567e-04,6.220206010322166558e-04,6.988649575133674182e-04,2.082852423756499888e-04,4.390314163164087471e-04,3.979015508437317231e-04,5.330778760817338159e-04,5.080362348811038372e-04,6.380917380075635083e-04,1.372844336880093283e-03,2.070368817242471777e-04,1.621749741303998155e-02,1.254651327565602754e-03,1.240028798000798261e-03,1.484656774370643820e-02,3.111871523557288772e-04,2.398897518915404231e-03,9.333836627177324874e-02,3.450610287358135686e-02,3.149437386489167823e-02,2.143564247324087832e-02,1.486010517165588067e-02,1.246204156844989315e-02,1.106426299446221576e-02,1.138553947060850190e-02,1.119313605018046678e-02,1.039109969364067874e-02,9.772196537768278179e-03,9.696190526512628999e-03,9.103433791355376378e-03,6.569735837347348518e-04,4.802078139444400243e-04,5.302693385585416494e-04,5.824108280985912205e-04,6.084160593337806970e-04,8.347519792886409599e-04,7.927153722909622072e-04,3.401718981638933632e-04,5.321621503521292706e-04,4.959478207696378562e-04,6.160854013471952183e-04,6.653624159601856380e-04,3.500194969860869658e-04,1
3.424452123637663180e-03,5.971861533839212168e-04,9.879190674467559774e-02,4.941602589338060791e-03,4.878265889123281629e-03,2.528383603642667815e-02,3.812766010845405396e-04,4.948666426169202361e-03,-9.807086464431121753e-01,8.174107802902463860e-02,-2.521045402137721270e-02,2.651863159589109252e-03,-2.515132780893125988e-02,1.401099950073632448e-03,-5.887605193902986948e-05,-4.259287805415579338e-03,-2.457027728789272936e-03,-2.672675675685879000e-04,-8.045968204166918311e-03,1.609927333819598412e-03,-6.291849274938709352e-03,5.061166598562919254e-04,5.011252669216375135e-04,7.555776570553531662e-04,7.435569792390071906e-04,6.679737463140489545e-04,5.550512317461503550e-04,5.681573833055089846e-04,1.824870934189866064e-04,3.731669901338032598e-04,4.681561875025308712e-04,5.647885459985653575e-04,3.329458024106171361e-04,7.640203192672189109e-04,1.424327460224161486e-03,5.739025148784235829e-04,1.478093911599082794e-02,1.290476406749864295e-03,1.321131101177207799e-03,1.368104741122067730e-02,3.877817665881528393e-04,2.219295059218906723e-03,1.196405864251391810e-01,3.945420232438431180e-02,3.619692978601692784e-02,2.085949434438665387e-02,2.055667500096177921e-02,1.554663668189579934e-02,1.368432379728383094e-02,1.363588777570943003e-02,1.276559114322899612e-02,1.021543114425694371e-02,9.956568521991818535e-03,1.072171668076012108e-02,8.691370741961456162e-03,6.560487514842678301e-04,6.325121375088538092e-04,8.742940138118231739e-04,9.146529159824410031e-04,8.157554302621575389e-04,7.647518038218496144e-04,6.844985512898956424e-04,3.116531240009679741e-04,5.185674151298897165e-04,5.718542011785962467e-04,6.762116326380330188e-04,4.703171545443157026e-04,4.391553046003377294e-04,1
